{
  "project_info": {
    "project_number": "987785173439",
    "project_id": "tucarrito-183219"
  },
  "client": [
    {
      "client_info": {
        "mobilesdk_app_id": "1:987785173439:android:145630971c464577",
        "android_client_info": {
          "package_name": "com.example.barre.tucarritomobile"
        }
      },
      "oauth_client": [
        {
          "client_id": "987785173439-ocog99t7bo1fkapfijb36jlog59as2bj.apps.googleusercontent.com",
          "client_type": 1,
          "android_info": {
            "package_name": "com.example.barre.tucarritomobile",
            "certificate_hash": "ae4c65b46b5f14d54a7273a5763eee330c5db889"
          }
        },
        {
          "client_id": "987785173439-58vec12rq22ekc50sljcnndvq8g9diu0.apps.googleusercontent.com",
          "client_type": 3
        },
        {
          "client_id": "987785173439-c7r5j7i2i43edb2h4o7i0f6alf9lggdd.apps.googleusercontent.com",
          "client_type": 3
        }
      ],
      "api_key": [
        {
          "current_key": "AIzaSyC-PFW6X5MZR734ZoUkh97AlBC2Jvqi0HE"
        }
      ],
      "services": {
        "analytics_service": {
          "status": 1
        },
        "appinvite_service": {
          "status": 1,
          "other_platform_oauth_client": []
        },
        "ads_service": {
          "status": 1
        }
      }
    }
  ],
  "configuration_version": "1"
}